Patient	CycA2Percent	CellSize	NuclearSize	Age	Waist	FatPercent	FatMass	VAIFemales	Glucose	TG	Cholesterol	HDL	LDL	ApoA1	Apo B	HbA1c	Cpeptide	Insulin	IGF1	Leptin	Adiponectin	PreIns	BMI	HOMAIR	Gender	Surgery
137-438	6,849315	9819,678	114,148	35	82	14,8	9,6	1,64	5,3	0,72	5,5	1,7	3,5	1,59	1,1	34	0,36	2,7	113	5,9	14	2,7	20,38884	0,636	1	
137-417	9,183674	8405,619	108,8828	78	104	28,5	25,1	2,34	5,6	1,4	4,7	1,1	3	1,4	1,01	36	0,92	9,2	133	17	10	9,2	25,13655	2,289778	1	
137-400	38,31776	13171,5	108,7157	74	98	28,7	22,5	3,88	6,6	1,2	5,9	2,3	3	2,08	1,07	40	0,94	5,8	135	10	14	5,8	26,07779	1,701333	1	
137-424	1,149425	14204,92	133,1079	72	115	31,7	30,7	11,91	5,5	7	5,4	1,1		1,58	1,04	38	1,3	9	92	16	4,2	9	29,19334	2,2	1	
137-425	57,14286	12290,08	114,8888	27	104	43,7	37,9	1,25	5,4	0,54	4,5	1,2	3	1,25	1,04	33	0,75	7,1	229	6,5	32	7,1	34,33408	1,704	2	
137-397	35,95506	12679,88	112,318	34	97	44,9	39	2,54	5,5	1,6	5,6	0,9	3,9	1,08	1,33	38	0,89	15	176	27	5,3	15	35,21441	3,666667	2	
137-375	34,61538	12100,25	123,2217	41					5,5	1,9	3,3	0,7	1,7	0,86	0,62	37	1,8	15	138	11	2,4	48	36,33034	3,666667	1	
137-361	26,96629	14487,66	114,7311	35	131	50,4	60,2	3,54	5,4	1,9	6,4	0,8	4,7	1,02	1,45	43	1,6	26	98	58	4,7	31	36,50682	6,24	2	
137-390	63,63636	14136,54	122,6538	54	125	50,39	56	3,75	5,9	1,4	4,2	1,3	2,2	1,42	0,86	33	1,4	18	131	50	16	31	40,9	4,72	2	
137-501	63,15789	13209,79	121,3479	41	125	48,8	56,2	3,01	6,1	1,3	4,6	1,2	2,7	1,29	0,93	42	1,1	16	146	31	7,5	17	45	4,337778	2	
137-521	37,5	18329,04	144,1349	39	128	46,8	63,3	5,09	6,1	3,2	5,3	0,8	3,1	1,12	1,2	37	1,5	27	127	50	2,8	20	44,62	7,32	2	
137-537	14,28571	7054,663	108,1352	48	84			1,27	5,6	0,62	5,9	1,6	4	1,41	1,04	37	0,41	4	117	1,6	16	4	23,32	0,9955556	1	
137-553	34,72222	15955,86	125,0616	30	100	47,4	49,1	1,77	5,9	1	3,9	1	2,4	0,93	0,78	32	0,6	7,8	147	23	8	7,8	36,74	2,045333	2	
137-539	59,59596	12438,27	143,6292	40	112	44,4	41,6	2,79	5,5	1,8	3,4	0,8	1,8	1,01	0,65	27	2,1	33	197	31	4,8	5,3	38,01371	8,066667	2	
137-536	11,65049	8642,299	116,4787	70	97	25	19,3	2	6,7	0,86	4,9	1,6	3	1,6	0,94	35	0,67	6,5	148	2,5	9,4	6,5	24,06292	1,935556	1	
137-597	12,26415	11059,68	137,6468	31	121	29,8	34,9	0,79	5,1	0,75	2,7	0,7	1,7	0,71	0,57	32	0,54	7,3	142	14	8	7,3	33,5154	1,654667	1	
137-562	50	10051,74	141,1995	56	128,5	49,2	54,8		5,7	1,6	4,8	0,8	3,2	0,98	1,03	40	1,6	19	97	82	4,2	48	41,9	4,813334	2	
137-524	50,60241	8588,474	128,0225	70	111	31,5	28,8	5,01	5,8	2,4	7,3	1,3	4,9	1,46	1,6	35	1,1	15	109	11	5,2	15	25,64318	3,866667	1	
137-525	62,5	10685,85	135,0313	37	98	46,2	38,7	1,79	5,5	0,78	4	1,3	2,4	1,11	0,75	32	0,81	14	204	47	11	11	35,84092	3,422222	2	
137-555	30,55556	11223,14	122,7595	32	99	46,2	50,8	3,58	5	1,9	4,9	1,1	2,9	1,27	0,96	35	0,78	9,4	204		7,4	12	38,06228	2,088889	2	
137-528	35,81081	14407,12	129,426	65	120	50,6	57,6		5,2	0,87	4,2	1,8	2,1	1,45	0,78	32	0,94	14	92			14	37,13	3,235556	2	
137-576	19,49686		123,1155	44	136	36,5	48,4		5,6	0,87	2,9	0,9	1,6	1,03	0,55	38	0,74	11	123			27	43,3	2,737778	1	
137-1042	6,015037594	7931,663287	133,7605338	69	90	13,9	10,2	4,49	5,8	1,3	5,2	1,7	2,9	1,64	1,02	38	0,68	6,9	133	12	14		24,6	1,78	2	Gall stone
137-1087	69,34307			54	115,5	46,4	43,8	3,938474854	6,2	1,8	4,5	1,1	2,6	1,33	0,89	38	1,2	17	85	44	4,3	28	38,2976997	4,684444444	2	
137-1105	76,76056			49	99	46,9	45	2,959915768	5,6	1,3	4,1	1,3	2,2	1,36	0,81	33	0,62	9,6	136	29	13	5,6	36,76830028	2,389333333	2	
137-1088	19,88304			28	115	48,8	56,7	2,553488117	4,8	1,1	4,1	1,2	2,4	1,2	0,92	32	0,8	10	169	35	7	14	39,67032591	2,13	2	
137-1143	12			30	87	32,5	24,1	2,163981465	5,4	0,61	4,5	1,8	2,4	1,47	0,78	32	0,52	7,4	127	11	5,1		24,47483155	1,776	2	Gall stone
137-1091	28,28947			33	97	49,5	51,2	1,431459319	4,8	0,74	3,6	1,2	2	1,22	0,67	35	0,67	9,9	105	71	8	6,6	40,390625	2,112	2	
137-1110	57,14286			42	98	47,8	42,3	10,51711545	5,6	4,9	6,6	1,2		1,63	1,3	36	0,8	12	88				35,04608204	2,986666667	2	
137-1176	20,8589			56	86,5	42,2	30,6	2,84011715	5,4	1,2	6,1	1,2	4,4	1,42	1,51	37	1,1	9,6	173	42	13		24,19058438	2,304	2	Gall stone
137-1133	13,5514			26	81	28,4	17	2,420472692	4,7	0,71	4,3	1,8	2,2	1,81	0,6	35	0,47	3,7	210	6	7,5		23,10867636	0,772888889	2	Gall stone
137-1128	9,81595			43	82	35,2	26,3	2,30954831	4,9	0,78	4,7	1,6	2,7	1,47	0,82	34	0,62	7,8	212	18	14		24,63997886	1,698666667	2	Gall stone